﻿<?xml version="1.0" encoding="UTF-8"?>
<TestRun id="c77e3834-ad13-4bec-b65d-d95d0e7db031" name="Administrator@INFORMA-KRO3GGO 2017-11-17 21:38:48" runUser="INFORMA-KRO3GGO\Administrator" xmlns="http://microsoft.com/schemas/VisualStudio/TeamTest/2010">
  <TestSettings name="Local" id="31da71bf-8a09-4d97-9ad7-e75613855743">
    <Description>These are default test settings for a local test run.</Description>
    <Deployment userDeploymentRoot="C:\Users\Administrator\Documents\ADEV-2003 Programming 3\BankOfBIT_CarlTibule\TestResults" useDefaultDeploymentRoot="false" enabled="false" runDeploymentRoot="Administrator_INFORMA-KRO3GGO 2017-11-17 21_38_48">
      <DeploymentItem filename="C:\Users\Administrator\Documents\ADEV-2003 Programming 3\BankOfBIT_CarlTibule\WindowsBanking\WindowsBankingApplication\bin\Debug\WindowsBankingApplication.exe" />
    </Deployment>
    <Execution>
      <TestTypeSpecific />
      <AgentRule name="Execution Agents">
      </AgentRule>
    </Execution>
  </TestSettings>
  <Times creation="2017-11-17T21:38:48.1634461-06:00" queuing="2017-11-17T21:38:49.9605776-06:00" start="2017-11-17T21:38:50.1634241-06:00" finish="2017-11-17T21:40:01.1192062-06:00" />
  <ResultSummary outcome="Error">
    <Counters total="1" executed="1" error="0" failed="0" timeout="0" aborted="1" inconclusive="0" passedButRunAborted="0" notRunnable="0" notExecuted="0" disconnected="0" warning="0" passed="0" completed="0" inProgress="0" pending="0" />
    <RunInfos>
      <RunInfo computerName="INFORMA-KRO3GGO" outcome="Error" timestamp="2017-11-17T21:40:01.1162063-06:00">
        <Text>Test host process exited unexpectedly.</Text>
      </RunInfo>
    </RunInfos>
  </ResultSummary>
  <TestDefinitions>
    <UnitTest name="ProcessHeaderTest" storage="c:\users\administrator\documents\adev-2003 programming 3\bankofbit_carltibule\testproject\bin\debug\testproject.dll" id="ff88667d-4584-2548-f619-590b9aa884e5">
      <Execution id="b63fde91-9b10-4bb1-93dc-26fae633e7dd" />
      <TestMethod codeBase="C:/Users/Administrator/Documents/ADEV-2003 Programming 3/BankOfBIT_CarlTibule/TestProject/bin/Debug/TestProject.DLL" adapterTypeName="Microsoft.VisualStudio.TestTools.TestTypes.Unit.UnitTestAdapter, Microsoft.VisualStudio.QualityTools.Tips.UnitTest.Adapter, Version=10.0.0.0, Culture=neutral, PublicKeyToken=b03f5f7f11d50a3a" className="TestProject.BatchTest, TestProject, Version=1.0.0.0, Culture=neutral, PublicKeyToken=null" name="ProcessHeaderTest" />
    </UnitTest>
  </TestDefinitions>
  <TestLists>
    <TestList name="Results Not in a List" id="8c84fa94-04c1-424b-9868-57a2d4851a1d" />
    <TestList name="All Loaded Results" id="19431567-8539-422a-85d7-44ee4e166bda" />
  </TestLists>
  <TestEntries>
    <TestEntry testId="ff88667d-4584-2548-f619-590b9aa884e5" executionId="b63fde91-9b10-4bb1-93dc-26fae633e7dd" testListId="8c84fa94-04c1-424b-9868-57a2d4851a1d" />
  </TestEntries>
  <Results>
    <UnitTestResult executionId="b63fde91-9b10-4bb1-93dc-26fae633e7dd" testId="ff88667d-4584-2548-f619-590b9aa884e5" testName="ProcessHeaderTest" computerName="INFORMA-KRO3GGO" duration="00:01:10.7524337" startTime="2017-11-17T21:38:50.3667725-06:00" endTime="2017-11-17T21:40:01.1192062-06:00" testType="13cdc9d9-ddb5-4fa4-a97d-d965ccfc6d4b" outcome="Aborted" testListId="8c84fa94-04c1-424b-9868-57a2d4851a1d" relativeResultsDirectory="b63fde91-9b10-4bb1-93dc-26fae633e7dd">
    </UnitTestResult>
  </Results>
</TestRun>